…
Jane measures frog density and vegetation characteristics from 2 transects (`transect`) within 4 ponds (`pond`). Assume her data are structured like this:

``` r
set.seed(99)
d <- tibble::tibble(
  frog_dens = rlnorm(100), 
  vegetation = rnorm(100), 
  pond = gl(25, 4), # generates factor levels
  transect = rep(gl(2, 2), 25))
d
```

    ## # A tibble: 100 × 4
    ##    frog_dens vegetation   pond transect
    ##        <dbl>      <dbl> <fctr>   <fctr>
    ## 1  1.2385762 -1.5250694      1        1
    ## 2  1.6155220 -0.5009917      1        1
    ## 3  1.0918011 -1.2131812      1        2
    ## 4  1.5587099 -0.6302768      1        2
    ## 5  0.6956992 -1.4474855      2        1
    ## 6  1.1305158 -0.1669084      2        1
    ## 7  0.4215381  1.5889265      2        2
    ## 8  1.6317030 -0.2303574      2        2
    ## 9  0.6948100 -0.5733715      3        1
    ## 10 0.2741056  0.5627325      3        1
    ## # ... with 90 more rows
…
