…
Imagine you went outside 20 times and each time you measured the cup of water 10 times. Then you fitted a linear regression model with an intercept only each time and plotted the confidence intervals.

``` r
calc_mean <- function(i) {
  y <- rnorm(n = n, mean = mu, sd = sigma)
  m <- lm(y~1)
  ci <- confint(m, level = 0.95)
  tibble(l = ci[1], u = ci[2], y = y, i = i)
}
N <- 20
sim_ci <- lapply(seq_len(N), calc_mean) %>% bind_rows()
sim_ci
```

    ## # A tibble: 200 × 4
    ##           l        u         y     i
    ##       <dbl>    <dbl>     <dbl> <int>
    ## 1  1.418933 7.440845  2.418761     1
    ## 2  1.418933 7.440845 12.086560     1
    ## 3  1.418933 7.440845  4.853139     1
    ## 4  1.418933 7.440845  5.601082     1
    ## 5  1.418933 7.440845 -0.752660     1
    ## 6  1.418933 7.440845  7.084499     1
    ## 7  1.418933 7.440845 -1.431788     1
    ## 8  1.418933 7.440845  1.342112     1
    ## 9  1.418933 7.440845  8.603563     1
    ## 10 1.418933 7.440845  4.493618     1
    ## # ... with 190 more rows
…
Sound convoluted? It kind of is in many cases.

``` r
calc_mean_zero <- function(i) {
  y <- rnorm(n = n, mean = 0, sd = sigma)
  m <- lm(y~1)
  tibble(i = i, mu_hat_sim = coef(m)[[1]])
}
N <- 3000
sim_pvals <- lapply(seq_len(N), calc_mean_zero) %>% bind_rows()
sim_pvals
```

    ## # A tibble: 3,000 × 2
    ##        i mu_hat_sim
    ##    <int>      <dbl>
    ## 1      1 -0.7530811
    ## 2      2  1.0183478
    ## 3      3  0.5732966
    ## 4      4  1.0159382
    ## 5      5 -1.6174588
    ## 6      6  0.6608311
    ## 7      7 -1.1222670
    ## 8      8  0.7659645
    ## 9      9 -2.4006223
    ## 10    10  2.0461647
    ## # ... with 2,990 more rows
…
