…
How can we include this information in our model?

Adding a group-level predictor
------------------------------

``` r
d <- left_join(d, taxa_dat, by = "taxon")
d %>% select(taxon, wingl, log_wingl_centered, mean_log_wingl)
```

    ## # A tibble: 1,434 × 4
    ##              taxon wingl log_wingl_centered mean_log_wingl
    ##              <chr> <dbl>              <dbl>          <dbl>
    ## 1  Geospiza fortis    69       -0.003557961    0.009340336
    ## 2  Geospiza fortis    65       -0.063277195    0.009340336
    ## 3  Geospiza fortis    65       -0.063277195    0.009340336
    ## 4  Geospiza fortis    68       -0.018156760    0.009340336
    ## 5  Geospiza fortis    66       -0.048009723    0.009340336
    ## 6  Geospiza fortis    68       -0.018156760    0.009340336
    ## 7  Geospiza fortis    67       -0.032971846    0.009340336
    ## 8  Geospiza fortis    69       -0.003557961    0.009340336
    ## 9  Geospiza fortis    67       -0.032971846    0.009340336
    ## 10 Geospiza fortis    68       -0.018156760    0.009340336
    ## # ... with 1,424 more rows
…
