…
Let's read in the data and clean it up a bit:

``` r
library(tidyverse)
d <- read_csv("data/raw/freitas-2016/Cod_daily_depth_data.csv") %>%
  mutate(date = lubridate::dmy(date)) %>%
  rename(temperature = Temperature_1m) %>%
  na.omit %>% 
  as_data_frame() %>%
  arrange(fish, date)
d
```

    ## # A tibble: 5,083 × 5
    ##        fish       date depth_mean_day depth_mean_night temperature
    ##       <chr>     <date>          <dbl>            <dbl>       <dbl>
    ## 1  Cod_6755 2013-06-28       19.64417         19.59565    18.00542
    ## 2  Cod_6755 2013-06-29       19.98276         19.72679    17.75596
    ## 3  Cod_6755 2013-06-30       19.94709         20.04062    17.18113
    ## 4  Cod_6755 2013-07-01       19.96828         19.94154    17.49952
    ## 5  Cod_6755 2013-07-02       17.74378         19.93000    17.60138
    ## 6  Cod_6755 2013-07-03       14.47237         19.12308    17.60550
    ## 7  Cod_6755 2013-07-04       13.27979         15.99556    17.61354
    ## 8  Cod_6755 2013-07-05       16.00823         14.53206    18.11671
    ## 9  Cod_6755 2013-07-06       14.06752         19.43747    17.94629
    ## 10 Cod_6755 2013-07-07       17.39794         17.03698    18.91737
    ## # ... with 5,073 more rows
…
    ## Joining, by = "fish"

``` r
newdata
```

    ## Source: local data frame [2,400 x 4]
    ## Groups: fish [?]
    ## 
    ##        fish temperature_centered temperature     n
    ##       <chr>                <dbl>       <dbl> <int>
    ## 1  Cod_6755            -3.036390    13.48150   101
    ## 2  Cod_6755            -2.880840    13.63705   101
    ## 3  Cod_6755            -2.725289    13.79260   101
    ## 4  Cod_6755            -2.569739    13.94815   101
    ## 5  Cod_6755            -2.414189    14.10370   101
    ## 6  Cod_6755            -2.258639    14.25925   101
    ## 7  Cod_6755            -2.103089    14.41480   101
    ## 8  Cod_6755            -1.947539    14.57035   101
    ## 9  Cod_6755            -1.791988    14.72590   101
    ## 10 Cod_6755            -1.636438    14.88145   101
    ## # ... with 2,390 more rows
…
