…
A simulated data set
====================

I've simulated a data set with the predictor `x`, the response variables `y` through `y4`, collected for groups (`group`) A through L, and collected over time (`time`). Let's load that data set:

``` r
library(tidyverse)
library(nlme)
library(lme4)
d <- readRDS("data/generated/model-checking.rds")
d
```

    ## # A tibble: 480 × 8
    ##     group  time           x           y         y1         y2         y3
    ##    <fctr> <int>       <dbl>       <dbl>      <dbl>      <dbl>      <dbl>
    ## 1       A     1 -0.62124058 -1.08050850 -0.9599622 -0.4117448  0.2895616
    ## 2       A     2 -2.21469989 -1.27920375 -1.4219260 -0.8556033 -1.1917182
    ## 3       A     3  1.12493092  2.61011380  3.0594716 -0.1497541  1.1795339
    ## 4       A     4 -0.04493361 -0.92633047 -0.1920425  0.3679455 -1.4784386
    ## 5       A     5 -0.01619026 -0.06207282 -0.1183674  0.6835813 -0.1855607
    ## 6       A     6  0.94383621 -0.43073625  2.9827630  0.5154643  0.3233302
    ## 7       A     7  0.82122120  0.38068512  0.8670339  1.1687410  0.9773743
    ## 8       A     8  0.59390132 -0.46552573 -1.6440218 -0.3535327 -1.7948436
    ## 9       A     9  0.91897737  0.26735289 -0.8664985 -0.1737731 -0.8766547
    ## 10      A    10  0.78213630 -0.02557070 -0.5063872 -0.6035558  0.7270605
    ## # ... with 470 more rows, and 1 more variables: y4 <dbl>
…
