…
We are going to simulate our own data for this exercise. The following will be common parameters. `N` is the number of data points. `x` is our predictor variable. `a` is the intercept. And `b` is the slope.

``` r
library(ggplot2)
library(dplyr)
set.seed(111)
N <- 200
x <- runif(N, -1, 1)
a <- 0.5
b <- 1.3
d <- data_frame(x = x)
d
```

    ## # A tibble: 200 × 1
    ##              x
    ##          <dbl>
    ## 1   0.18596257
    ## 2   0.45296224
    ## 3  -0.25915599
    ## 4   0.02984766
    ## 5  -0.24467357
    ## 6  -0.16332535
    ## 7  -0.97868431
    ## 8   0.06459048
    ## 9  -0.13567877
    ## 10 -0.81263696
    ## # ... with 190 more rows
…
