…
    ## Joining, by = "species"

``` r
d
```

    ## # A tibble: 843 × 9
    ##      tank      date drying warming species species_true   svl  mass  time
    ##    <fctr>     <chr>  <dbl>   <dbl>  <fctr>        <chr> <dbl> <dbl> <int>
    ## 1       1 6/27/2012      1       1       b    spadefoot  16.0 0.670    49
    ## 2       1 6/29/2012      1       1       b    spadefoot  16.0 0.597    51
    ## 3       1  7/1/2012      1       1       b    spadefoot  17.0 0.523    53
    ## 4       1  7/1/2012      1       1       b    spadefoot  16.0 0.492    53
    ## 5       1  7/1/2012      1       1       b    spadefoot  18.0 0.609    53
    ## 6       1  7/2/2012      1       1       b    spadefoot  16.0 0.476    54
    ## 7       1  7/2/2012      1       1       b    spadefoot  17.5 0.536    54
    ## 8       1  7/4/2012      1       1       b    spadefoot  16.5 0.368    56
    ## 9       1  7/4/2012      1       1       b    spadefoot  18.5 0.642    56
    ## 10      1  7/4/2012      1       1       b    spadefoot  19.0 0.698    56
    ## # ... with 833 more rows
…
